[
  {
   "geometry": {
    "paths": [
     [
      [
       1029279.1390958466,
       1868679.1058456153
      ],
      [
       1029288.9911102615,
       1868652.4280774444
      ],
      [
       1029293.5668885112,
       1868638.984862864
      ],
      [
       1029297.0668815114,
       1868628.7030592784
      ],
      [
       1029304.1341245957,
       1868599.4249026179
      ],
      [
       1029308.3988798447,
       1868573.5968702808
      ],
      [
       1029310.5199385956,
       1868557.8360750303
      ],
      [
       1029311.0360136777,
       1868554.0030774474
      ],
      [
       1029311.774857346,
       1868542.7770500332
      ],
      [
       1029312.9198681787,
       1868525.3659956157
      ],
      [
       1029312.210880097,
       1868500.4861241132
      ],
      [
       1029311.6961173452,
       1868496.0218942016
      ],
      [
       1029309.8969083466,
       1868480.4330146164
      ],
      [
       1029303.8680490106,
       1868445.2729799449
      ],
      [
       1029292.4271270111,
       1868392.3229546174
      ]
     ]
    ]
   },
   "attributes": {
    "objectid": 1537,
    "facilityid": "129033",
    "installdate": 852076800000,
    "material": "DIP",
    "diameter": 8,
    "watertype": "Potable",
    "enabled": 1,
    "activeflag": 1,
    "ownedby": 1,
    "maintby": 1,
    "lastupdate": 1271761683000,
    "lasteditor": "ESRI"
   }
  }
 ]